[gd_scene load_steps=6 format=2]

[ext_resource path="res://assets/tileset/floor.png" type="Texture" id=1]
[ext_resource path="res://scenes/player/player.tscn" type="PackedScene" id=2]
[ext_resource path="res://scenes/enemies/DashEnemy.tscn" type="PackedScene" id=3]
[ext_resource path="res://assets/backgrounds/bg_1.png" type="Texture" id=4]

[sub_resource type="TileSet" id=1]
0/name = "floor.png 0"
0/texture = ExtResource( 1 )
0/tex_offset = Vector2( 0, 0 )
0/modulate = Color( 1, 1, 1, 1 )
0/region = Rect2( 0, 0, 48, 64 )
0/tile_mode = 1
0/autotile/bitmask_mode = 2
0/autotile/bitmask_flags = [ Vector2( 0, 0 ), 432, Vector2( 0, 1 ), 438, Vector2( 0, 2 ), 54, Vector2( 0, 5 ), 48, Vector2( 1, 0 ), 504, Vector2( 1, 1 ), 511, Vector2( 1, 2 ), 63, Vector2( 1, 5 ), 184, Vector2( 1, 6 ), 178, Vector2( 1, 7 ), 18, Vector2( 2, 0 ), 216, Vector2( 2, 1 ), 219, Vector2( 2, 2 ), 27, Vector2( 2, 4 ), 144, Vector2( 2, 5 ), 154, Vector2( 2, 6 ), 58, Vector2( 3, 0 ), 255, Vector2( 3, 1 ), 219, Vector2( 3, 2 ), 507, Vector2( 3, 3 ), 176, Vector2( 3, 4 ), 146, Vector2( 3, 5 ), 50, Vector2( 3, 6 ), 24, Vector2( 4, 0 ), 63, Vector2( 4, 1 ), 16, Vector2( 4, 2 ), 504, Vector2( 4, 3 ), 56, Vector2( 4, 5 ), 56, Vector2( 5, 0 ), 447, Vector2( 5, 1 ), 438, Vector2( 5, 2 ), 510, Vector2( 5, 3 ), 152, Vector2( 5, 4 ), 146, Vector2( 5, 5 ), 26 ]
0/autotile/icon_coordinate = Vector2( 1, 1 )
0/autotile/tile_size = Vector2( 8, 8 )
0/autotile/spacing = 0
0/autotile/occluder_map = [  ]
0/autotile/navpoly_map = [  ]
0/autotile/priority_map = [  ]
0/autotile/z_index_map = [  ]
0/occluder_offset = Vector2( 0, 0 )
0/navigation_offset = Vector2( 0, 0 )
0/shapes = [  ]
0/z_index = 0

[node name="testlevel" type="Node2D"]

[node name="TileMap" type="TileMap" parent="."]
tile_set = SubResource( 1 )
cell_size = Vector2( 8, 8 )
format = 1
tile_data = PoolIntArray( 7, 0, 0, 8, 0, 1, 9, 0, 131076, 10, 0, 2, 18, 0, 327680, 19, 0, 393219, 65543, 0, 65536, 65544, 0, 65537, 65545, 0, 65537, 65546, 0, 65539, 131079, 0, 65537, 131080, 0, 65537, 131081, 0, 65537, 131082, 0, 65537, 196608, 0, 0, 196609, 0, 1, 196610, 0, 131076, 196611, 0, 131076, 196612, 0, 1, 196613, 0, 1, 196614, 0, 65537, 196615, 0, 131077, 196616, 0, 65537, 196617, 0, 65537, 196618, 0, 131075, 196619, 0, 65537, 196620, 0, 1, 196621, 0, 1, 196622, 0, 1, 196623, 0, 131076, 196624, 0, 131076, 196625, 0, 131076, 196626, 0, 2, 196630, 0, 0, 196631, 0, 2, 196634, 0, 65540, 262144, 0, 65541, 262145, 0, 65537, 262146, 0, 65537, 262147, 0, 65537, 262148, 0, 65537, 262149, 0, 65537, 262150, 0, 65537, 262151, 0, 65537, 262152, 0, 65537, 262153, 0, 65537, 262154, 0, 65537, 262155, 0, 65537, 262156, 0, 65537, 262157, 0, 65537, 262158, 0, 65537, 262159, 0, 65537, 262160, 0, 65537, 262161, 0, 65537, 262162, 0, 65538, 262166, 0, 131072, 262167, 0, 131074, 327680, 0, 65541, 327681, 0, 65537, 327682, 0, 65537, 327683, 0, 65537, 327684, 0, 65537, 327685, 0, 65537, 327686, 0, 65537, 327687, 0, 65537, 327688, 0, 65537, 327689, 0, 65537, 327690, 0, 65537, 327691, 0, 65537, 327692, 0, 65537, 327693, 0, 65537, 327694, 0, 65537, 327695, 0, 65537, 327696, 0, 65537, 327697, 0, 65537, 327698, 0, 65539, 393216, 0, 65536, 393217, 0, 65537, 393218, 0, 65537, 393219, 0, 65537, 393220, 0, 65537, 393221, 0, 65537, 393222, 0, 65537, 393223, 0, 65537, 393224, 0, 65537, 393225, 0, 65537, 393226, 0, 65537, 393227, 0, 65537, 393228, 0, 65537, 393229, 0, 65537, 393230, 0, 65537, 393231, 0, 65537, 393232, 0, 65537, 393233, 0, 65537, 393234, 0, 65539, 458752, 0, 65541, 458753, 0, 65537, 458754, 0, 65537, 458755, 0, 65537, 458756, 0, 65537, 458757, 0, 65537, 458758, 0, 65537, 458759, 0, 65537, 458760, 0, 65537, 458761, 0, 65537, 458762, 0, 65537, 458763, 0, 65537, 458764, 0, 65537, 458765, 0, 65537, 458766, 0, 65537, 458767, 0, 65537, 458768, 0, 65537, 458769, 0, 65537, 458770, 0, 65539, 458772, 0, 0, 458773, 0, 1, 458774, 0, 131076, 458775, 0, 1, 458776, 0, 1, 458777, 0, 131076, 458778, 0, 131076, 458779, 0, 1, 458780, 0, 2, 524288, 0, 65536, 524289, 0, 3, 524290, 0, 65537, 524291, 0, 131073, 524292, 0, 4, 524293, 0, 65537, 524294, 0, 5, 524295, 0, 65537, 524296, 0, 65537, 524297, 0, 3, 524298, 0, 65537, 524299, 0, 131073, 524300, 0, 131073, 524301, 0, 4, 524302, 0, 131073, 524303, 0, 65537, 524304, 0, 5, 524305, 0, 65537, 524306, 0, 65538, 524308, 0, 65536, 524309, 0, 65537, 524310, 0, 65537, 524311, 0, 65537, 524312, 0, 65537, 524313, 0, 65537, 524314, 0, 65537, 524315, 0, 65537, 524316, 0, 65539, 589824, 0, 65541, 589825, 0, 65537, 589830, 0, 65537, 589831, 0, 65537, 589832, 0, 65537, 589833, 0, 65537, 589840, 0, 65537, 589841, 0, 65537, 589842, 0, 65539, 589844, 0, 65536, 589845, 0, 65537, 589846, 0, 65537, 589847, 0, 65537, 589848, 0, 65537, 589849, 0, 65537, 589850, 0, 65537, 589851, 0, 65537, 589852, 0, 65538, 655360, 0, 65541, 655361, 0, 131075, 655362, 0, 65537, 655363, 0, 131076, 655364, 0, 1, 655365, 0, 65537, 655366, 0, 131077, 655367, 0, 65537, 655368, 0, 65537, 655369, 0, 131075, 655370, 0, 65537, 655371, 0, 131076, 655372, 0, 131076, 655373, 0, 1, 655374, 0, 1, 655375, 0, 65537, 655376, 0, 131077, 655377, 0, 65537, 655378, 0, 65538, 655380, 0, 65541, 655381, 0, 65537, 655382, 0, 65537, 655383, 0, 65537, 655384, 0, 65537, 655385, 0, 65537, 655386, 0, 65537, 655387, 0, 65537, 655388, 0, 65539, 720896, 0, 65536, 720897, 0, 65537, 720898, 0, 65537, 720899, 0, 65537, 720900, 0, 65537, 720901, 0, 65537, 720902, 0, 65537, 720903, 0, 65537, 720904, 0, 65537, 720905, 0, 65537, 720906, 0, 65537, 720907, 0, 65537, 720908, 0, 65537, 720909, 0, 65537, 720910, 0, 65537, 720911, 0, 65537, 720912, 0, 65537, 720913, 0, 65537, 720914, 0, 65539, 720916, 0, 131072, 720917, 0, 4, 720918, 0, 131073, 720919, 0, 131073, 720920, 0, 131073, 720921, 0, 4, 720922, 0, 131073, 720923, 0, 4, 720924, 0, 131074, 786432, 0, 65536, 786433, 0, 65537, 786434, 0, 65537, 786435, 0, 65537, 786436, 0, 65537, 786437, 0, 65537, 786438, 0, 65537, 786439, 0, 65537, 786440, 0, 65537, 786441, 0, 65537, 786442, 0, 65537, 786443, 0, 65537, 786444, 0, 65537, 786445, 0, 65537, 786446, 0, 65537, 786447, 0, 65537, 786448, 0, 65537, 786449, 0, 65537, 786450, 0, 65539, 851968, 0, 65536, 851969, 0, 65537, 851970, 0, 65537, 851971, 0, 65537, 851972, 0, 65537, 851973, 0, 65537, 851974, 0, 65537, 851975, 0, 65537, 851976, 0, 65537, 851977, 0, 65537, 851978, 0, 65537, 851979, 0, 65537, 851980, 0, 65537, 851981, 0, 65537, 851982, 0, 65537, 851983, 0, 65537, 851984, 0, 65537, 851985, 0, 65537, 851986, 0, 65538, 917504, 0, 65536, 917505, 0, 65537, 917506, 0, 65537, 917507, 0, 65537, 917508, 0, 65537, 917509, 0, 65537, 917510, 0, 65537, 917511, 0, 65537, 917512, 0, 65537, 917513, 0, 65537, 917514, 0, 65537, 917515, 0, 65537, 917516, 0, 65537, 917517, 0, 65537, 917518, 0, 65537, 917519, 0, 65537, 917520, 0, 65537, 917521, 0, 65537, 917522, 0, 65538, 983040, 0, 131072, 983041, 0, 4, 983042, 0, 4, 983043, 0, 131073, 983044, 0, 131073, 983045, 0, 131073, 983046, 0, 131073, 983047, 0, 4, 983048, 0, 131073, 983049, 0, 4, 983050, 0, 4, 983051, 0, 131073, 983052, 0, 131073, 983053, 0, 4, 983054, 0, 131073, 983055, 0, 131073, 983056, 0, 4, 983057, 0, 4, 983058, 0, 131074, 1114112, 0, 0, 1114113, 0, 1, 1114114, 0, 1, 1114115, 0, 1, 1114116, 0, 1, 1114117, 0, 131076, 1114118, 0, 1, 1114119, 0, 131076, 1114120, 0, 131076, 1114121, 0, 131076, 1114122, 0, 131076, 1114123, 0, 1, 1114124, 0, 1, 1114125, 0, 131076, 1114126, 0, 1, 1114127, 0, 1, 1114128, 0, 131076, 1114129, 0, 131076, 1114130, 0, 2, 1179648, 0, 131072, 1179649, 0, 4, 1179650, 0, 65537, 1179651, 0, 5, 1179652, 0, 65537, 1179653, 0, 65537, 1179654, 0, 65537, 1179655, 0, 65537, 1179656, 0, 65537, 1179657, 0, 65537, 1179658, 0, 65537, 1179659, 0, 65537, 1179660, 0, 65537, 1179661, 0, 65537, 1179662, 0, 65537, 1179663, 0, 3, 1179664, 0, 65537, 1179665, 0, 4, 1179666, 0, 131074, 1245187, 0, 65537, 1245188, 0, 65537, 1245189, 0, 65537, 1245190, 0, 65537, 1245191, 0, 65537, 1245192, 0, 65537, 1245193, 0, 65537, 1245194, 0, 65537, 1245195, 0, 65537, 1245196, 0, 65537, 1245197, 0, 65537, 1245198, 0, 65537, 1245199, 0, 65537, 1310723, 0, 131072, 1310724, 0, 131073, 1310725, 0, 131073, 1310726, 0, 4, 1310727, 0, 131073, 1310728, 0, 4, 1310729, 0, 131073, 1310730, 0, 131073, 1310731, 0, 131073, 1310732, 0, 131073, 1310733, 0, 4, 1310734, 0, 4, 1310735, 0, 131074 )

[node name="player" parent="." instance=ExtResource( 2 )]
position = Vector2( 62.8914, 59.8704 )

[node name="DasherBase" parent="." instance=ExtResource( 3 )]
position = Vector2( 96, 32 )

[node name="ParallaxBackground" type="ParallaxBackground" parent="."]
scroll_base_scale = Vector2( 0.5, 0.5 )

[node name="ParallaxLayer" type="ParallaxLayer" parent="ParallaxBackground"]
motion_mirroring = Vector2( 128, 128 )

[node name="Sprite" type="Sprite" parent="ParallaxBackground/ParallaxLayer"]
texture = ExtResource( 4 )
centered = false
