[gd_scene load_steps=4 format=2]

[ext_resource path="res://scenes/enemies/DashEnemy.gd" type="Script" id=1]
[ext_resource path="res://assets/sprites/enemy.png" type="Texture" id=2]

[sub_resource type="RectangleShape2D" id=1]
extents = Vector2( 4, 4 )

[node name="DasherBase" type="KinematicBody2D"]
script = ExtResource( 1 )

[node name="spr" type="Sprite" parent="."]
texture = ExtResource( 2 )
hframes = 2

[node name="CollisionShape2D" type="CollisionShape2D" parent="."]
shape = SubResource( 1 )

[node name="ray" type="RayCast2D" parent="."]
enabled = true
cast_to = Vector2( -90, 0 )
collision_mask = 2
collide_with_areas = true
collide_with_bodies = false
